\relax 
\newlabel{usepackage}{{}{}}
\newlabel{sec:titulo}{{}{}}
\newlabel{sec:resumen}{{}{}}
\@writefile{toc}{\contentsline {section}{\numberline {I}Introducci\'on}{}\protected@file@percent }
\newlabel{sec:introduccion}{{I}{}}
\@writefile{toc}{\contentsline {subsection}{\numberline {\mbox  {I-A}}Objetivos}{}\protected@file@percent }
\@writefile{toc}{\contentsline {subsubsection}{\numberline {\mbox  {I-A}1}}{}\protected@file@percent }
\@writefile{toc}{\contentsline {subsubsection}{\numberline {\mbox  {I-A}2}}{}\protected@file@percent }
\@writefile{toc}{\contentsline {subsubsection}{\numberline {\mbox  {I-A}3}}{}\protected@file@percent }
\@writefile{toc}{\contentsline {section}{\numberline {II}Marco Te\'orico}{}\protected@file@percent }
\newlabel{sec:marcoteorico}{{II}{}}
\@writefile{toc}{\contentsline {subsection}{\numberline {\mbox  {II-A}}Unidad de Medici\'on Inercial IMU (MPU6050)}{}\protected@file@percent }
\@writefile{lof}{\contentsline {figure}{\numberline {1}{\ignorespaces IMU - MPU6050}}{}\protected@file@percent }
\newlabel{fig:IMUMPU}{{1}{}}
\@writefile{toc}{\contentsline {subsection}{\numberline {\mbox  {II-B}}Tarjeta de Adquisici\'on (STM32 F446RE)}{}\protected@file@percent }
\@writefile{lof}{\contentsline {figure}{\numberline {2}{\ignorespaces STM32F446RE}}{}\protected@file@percent }
\newlabel{fig:STM}{{2}{}}
\@writefile{toc}{\contentsline {subsection}{\numberline {\mbox  {II-C}}Raspberry Pi 3B+}{}\protected@file@percent }
\@writefile{lof}{\contentsline {figure}{\numberline {3}{\ignorespaces Raspberry Pi 3B+}}{}\protected@file@percent }
\newlabel{fig:Raspi}{{3}{}}
\@writefile{toc}{\contentsline {subsection}{\numberline {\mbox  {II-D}}Comunicaci\'on puerto Serial (Protocolo I2C)}{}\protected@file@percent }
\@writefile{toc}{\contentsline {subsection}{\numberline {\mbox  {II-E}}Software VNC (Virtual Network Computing)}{}\protected@file@percent }
\@writefile{toc}{\contentsline {section}{\numberline {III}Resultados}{}\protected@file@percent }
\newlabel{sec:resultados}{{III}{}}
\@writefile{toc}{\contentsline {subsection}{\numberline {\mbox  {III-A}}Adquisici\'on de datos}{}\protected@file@percent }
\@writefile{lof}{\contentsline {figure}{\numberline {4}{\ignorespaces MPU6050 posicionada correctamente.}}{}\protected@file@percent }
\newlabel{fig:MPU6050}{{4}{}}
\@writefile{lof}{\contentsline {figure}{\numberline {5}{\ignorespaces Calibraci\'on obtenida desde la STM por el puesto serial PC}}{}\protected@file@percent }
\newlabel{fig:CalibracionIMU}{{5}{}}
\@writefile{toc}{\contentsline {subsection}{\numberline {\mbox  {III-B}}Procesamiento desde Matlab}{}\protected@file@percent }
\@writefile{lof}{\contentsline {figure}{\numberline {6}{\ignorespaces Configuraci\'on de los offset para el script de Matlab}}{}\protected@file@percent }
\newlabel{fig:MatlabIMU}{{6}{}}
\@writefile{lof}{\contentsline {figure}{\numberline {7}{\ignorespaces Lectura de datos con la validaci\'on de tiempo.}}{}\protected@file@percent }
\newlabel{fig:LecturaMPU6050}{{7}{}}
\@writefile{lof}{\contentsline {figure}{\numberline {8}{\ignorespaces Gr\'afica del Giroscopio de la MPU6050.}}{}\protected@file@percent }
\newlabel{fig:GiroscopioIMU}{{8}{}}
\@writefile{toc}{\contentsline {subsection}{\numberline {\mbox  {III-C}}Preparaci\'on de la Raspberry Pi, tarjeta que ejecutara e procesamiento en Python}{}\protected@file@percent }
\@writefile{lof}{\contentsline {figure}{\numberline {9}{\ignorespaces Conexi\'on VNC port\'atil - Raspberry Pi}}{}\protected@file@percent }
\newlabel{fig:VNC-PC_Pi}{{9}{}}
\@writefile{toc}{\contentsline {section}{\numberline {IV}An\'alisis}{}\protected@file@percent }
\newlabel{sec:analisis}{{IV}{}}
\@writefile{lof}{\contentsline {figure}{\numberline {10}{\ignorespaces Lectura serial de la adquisici\'on de datos}}{}\protected@file@percent }
\newlabel{fig:Adquisicion}{{10}{}}
\@writefile{lof}{\contentsline {figure}{\numberline {11}{\ignorespaces Comparaci\'on de la se\~nal sin calibrar y calibrada del acelerometro}}{}\protected@file@percent }
\newlabel{fig:Calibracionacelerometro}{{11}{}}
\@writefile{lof}{\contentsline {figure}{\numberline {12}{\ignorespaces Comparaci\'on de la se\~nal sin calibrar y calibrada del Giroscopio}}{}\protected@file@percent }
\newlabel{fig:Calibraciongiroscopio}{{12}{}}
\@writefile{lof}{\contentsline {figure}{\numberline {13}{\ignorespaces Funcionando Python desde la Raspberry Pi y conexi\'on VNC}}{}\protected@file@percent }
\newlabel{fig:PythonRaspi}{{13}{}}
\@writefile{toc}{\contentsline {section}{\numberline {V}Conclusiones}{}\protected@file@percent }
\newlabel{sec:conclusiones}{{V}{}}
\bibstyle{IEEEtran}
\bibdata{bibfile}
\bibcite{baio2011avaliaccao}{1}
\bibcite{collepardi1991scienza}{2}
\bibcite{braga2005eletronica}{3}
\bibcite{bronson2000c}{4}
\bibcite{amarante2008questao}{5}
\bibcite{oliveira2003relaccao}{6}
\bibcite{queiroga2008tecnologias}{7}
\@writefile{toc}{\contentsline {section}{Referencias}{}\protected@file@percent }
